<?xml version="1.0" encoding="UTF-8" standalone="no"?>
<svg
   xmlns:dc="http://purl.org/dc/elements/1.1/"
   xmlns:cc="http://creativecommons.org/ns#"
   xmlns:rdf="http://www.w3.org/1999/02/22-rdf-syntax-ns#"
   xmlns:svg="http://www.w3.org/2000/svg"
   xmlns="http://www.w3.org/2000/svg"
   xmlns:sodipodi="http://sodipodi.sourceforge.net/DTD/sodipodi-0.dtd"
   xmlns:inkscape="http://www.inkscape.org/namespaces/inkscape"
   id="svg2"
   height="45.183071mm"
   width="46.204994mm"
   version="1.1"
   viewBox="0 0 163.71848 160.09817"
   sodipodi:docname="login-icon.svg"
   inkscape:version="0.92.3 (unknown)">
  <metadata
     id="metadata22">
    <rdf:RDF>
      <cc:Work
         rdf:about="">
        <dc:format>image/svg+xml</dc:format>
        <dc:type
           rdf:resource="http://purl.org/dc/dcmitype/StillImage" />
        <dc:title />
      </cc:Work>
    </rdf:RDF>
  </metadata>
  <defs
     id="defs20" />
  <sodipodi:namedview
     pagecolor="#ffffff"
     bordercolor="#666666"
     borderopacity="1"
     objecttolerance="10"
     gridtolerance="10"
     guidetolerance="10"
     inkscape:pageopacity="0"
     inkscape:pageshadow="2"
     inkscape:window-width="1920"
     inkscape:window-height="1053"
     id="namedview18"
     showgrid="false"
     fit-margin-top="0"
     fit-margin-left="0"
     fit-margin-right="0"
     fit-margin-bottom="0"
     inkscape:zoom="0.90885418"
     inkscape:cx="-244.97381"
     inkscape:cy="67.264543"
     inkscape:window-x="0"
     inkscape:window-y="0"
     inkscape:window-maximized="1"
     inkscape:current-layer="svg2" />
  <text
     line-height="100%"
     x="-1409.5734"
     y="169.37094"
     font-size="40px"
     xml:space="preserve"
     style="font-size:40px;line-height:100%;font-family:sans-serif;letter-spacing:0px;word-spacing:0px;fill:#000000"
     id="text14127"><tspan
       y="169.37094"
       x="-1409.5734"
       id="tspan14129"></tspan></text>
  <flowRoot
     line-height="100%"
     style="font-size:40px;line-height:100%;font-family:sans-serif;letter-spacing:0px;word-spacing:0px;fill:#000000"
     xml:space="preserve"
     font-size="40px"
     id="flowRoot14131"
     transform="translate(-98.144742,2.723023)"><flowRegion
       id="flowRegion14133"><rect
         height="568.57001"
         x="-1525.7"
         width="522.85999"
         y="-101.92"
         id="rect14135" /></flowRegion><flowPara
       id="flowPara14137"></flowPara></flowRoot>  <circle
     id="circle14160"
     style="color:#000000;isolation:auto;mix-blend-mode:normal;solid-color:#000000;fill:none;stroke:#ffffff;stroke-width:11.25004673;stroke-linecap:round;stroke-linejoin:round;stroke-miterlimit:4;stroke-dasharray:none;stroke-opacity:1;color-rendering:auto;image-rendering:auto;shape-rendering:auto"
     cx="81.855255"
     cy="47.091022"
     r="41.466" />
  <path
     id="path14162"
     style="color:#000000;isolation:auto;mix-blend-mode:normal;solid-color:#000000;fill:none;stroke:#ffffff;stroke-width:11.25004673;stroke-linecap:round;stroke-linejoin:round;stroke-miterlimit:4;stroke-dasharray:none;stroke-opacity:1;color-rendering:auto;image-rendering:auto;shape-rendering:auto"
     d="m 5.6252571,154.39302 c 0,-30.767 34.1310009,-55.708997 76.2340009,-55.708997 42.103002,-1.8e-5 76.234002,24.941997 76.234002,55.708997"
     inkscape:connector-curvature="0" />
</svg>
